Run a blastp query. — blast_p • baitfindR
…
#> cols(
#>   X1 = col_character(),
#>   X2 = col_character(),
#>   X3 = col_double(),
#>   X4 = col_double(),
#>   X5 = col_double(),
#>   X6 = col_double(),
#>   X7 = col_double(),
#>   X8 = col_double(),
#>   X9 = col_double(),
#>   X10 = col_double(),
#>   X11 = col_double(),
#>   X12 = col_double()
#> )
#> # A tibble: 225 x 12
#>    X1    X2         X3    X4    X5    X6    X7    X8    X9   X10   X11   X12
#>    <chr> <chr>   <dbl> <dbl> <dbl> <dbl> <dbl> <dbl> <dbl> <dbl> <dbl> <dbl>
#>  1 No305 No305   100     320     0     0     2   321     2   321     0   645
#>  2 No305 No1206S  98.4   319     5     0     2   320     2   320     0   639
#>  3 No305 No1202S  98.4   319     5     0     2   320     2   320     0   639
#>  4 No305 No1103S  98.4   319     5     0     2   320     2   320     0   639
#>  5 No305 No0913S  98.4   319     5     0     2   320     2   320     0   639
#>  6 No305 No0912S  98.4   319     5     0     2   320     2   320     0   639
#>  7 No305 No0908S  98.4   319     5     0     2   320     2   320     0   639
#>  8 No305 No304    98.4   320     5     0     2   321     2   321     0   639
#>  9 No305 No1007S  98.1   319     6     0     2   320     2   320     0   637
#> 10 No305 No0910S  98.1   319     6     0     2   320     2   320     0   637
#> # … with 215 more rows
…
